#  ==========================================================================
#  Wavefront Material file
#  Exported by Red-i Productions' "Riptide Pro"
#  (a commercial plugin for Cinema 4D PC & Mac, R10 or later)
#  
#  Red-i Productions
#  http://skinprops.com
#  
#  ==========================================================================

newmtl chrome
Kd 0.000000 0.000000 0.000000
illum 1

newmtl light
Ka 0.979592 0.976601 0.949681
Kd 0.000000 0.000000 0.000000
illum 1

newmtl colour
Kd 0.862745 0.823529 0.713726
illum 1

newmtl tex6
Kd 0.800000 0.800000 0.800000
illum 1
map_Kd tex6.jpg

newmtl aluminum
Kd 0.724490 0.724490 0.724490
illum 1

newmtl tex5
Kd 0.800000 0.800000 0.800000
illum 1
map_Kd tex5.jpg

newmtl glass
Kd 0.877863 0.951145 1.000000
Tf 0.938931 0.973537 1.000000
illum 1
d 0.000000
Ni 1.000000

newmtl black
Kd 0.094800 0.099691 0.107843
illum 1

newmtl brown
Kd 0.196078 0.172549 0.164706
illum 1

newmtl default_Mat
illum 1

newmtl bake
Kd 0.800000 0.800000 0.800000
illum 1
map_Kd bake.jpg

newmtl table
Kd 0.632653 0.556590 0.415329
illum 1

newmtl steel
Kd 0.448980 0.308459 0.167939
illum 1

newmtl tex1
Kd 0.800000 0.800000 0.800000
illum 1
map_Kd tex1.jpg

newmtl tex2
Kd 0.800000 0.800000 0.800000
illum 1
map_Kd tex2.jpg

newmtl tex3
Kd 0.800000 0.800000 0.800000
illum 1
map_Kd tex3.jpg

newmtl tex4
Kd 0.800000 0.800000 0.800000
illum 1
map_Kd tex4.jpg
bump tex4bump.jpg
